Statistical modelling
…
*tinyframes
```
]]]
]]

.column.bg-main3[.content.vtop.center[
.pull.left[.pad1[.font2[

```
## # A tibble: 225 x 4
##       id   age condition response
##    <int> <int> <chr>        <dbl>
##  1     1    36 category      5.33
##  2     2    46 category      7.05
##  3     3    33 property      4.86
##  4     4    71 property      3.86
##  5     5    23 property      9   
##  6     6    31 category      7.90
##  7     7    23 property      3.76
##  8     8    31 property      4   
##  9     9    37 category      3.38
## 10    10    46 category      5.86
## # ... with 215 more rows
```
…
modestframes
```

- But what if I care about how people adjust their beliefs as more data arrive? <br><br>
- If so, I don't want to collaps "n_obs", I want to analyse it

]]]
]]

--
.column.bg-main3[.content.vtop.center[
.pull.left[.pad1[.font2[

```
## # A tibble: 675 x 5
##       id   age condition n_obs response
##    <int> <int> <chr>     <int>    <dbl>
##  1     1    36 category      2     5.86
##  2     1    36 category      6     5.29
##  3     1    36 category     12     4.86
*##  4     2    46 category      2     5.29
*##  5     2    46 category      6     7.57
*##  6     2    46 category     12     8.29
##  7     3    33 property      2     5.43
##  8     3    33 property      6     4.86
##  9     3    33 property     12     4.29
## 10     4    71 property      2     4.57
## # ... with 665 more rows
```
…
```r
modestframes$modelfit <- predict(modest3)
modestframes$resid <- residuals(modest3)
modestframes
```
]]]
]]

--
.row.bg-main3[.content.vtop.center[
.pull.left[.pad1[.font2[

```
## # A tibble: 675 x 7
##       id   age condition n_obs response modelfit   resid
##    <int> <int> <chr>     <int>    <dbl>    <dbl>   <dbl>
##  1     1    36 category      2     5.86     5.55  0.310 
##  2     1    36 category      6     5.29     5.33 -0.0479
##  3     1    36 category     12     4.86     5.01 -0.156 
##  4     2    46 category      2     5.29     6.07 -0.783 
##  5     2    46 category      6     7.57     6.83  0.746 
##  6     2    46 category     12     8.29     7.96  0.324 
##  7     3    33 property      2     5.43     5.07  0.354 
##  8     3    33 property      6     4.86     4.84  0.0179
##  9     3    33 property     12     4.29     4.49 -0.200 
## 10     4    71 property      2     4.57     4.27  0.305 
## # ... with 665 more rows
```
…
