…
library(here)
library(tidyverse)

R graphics

Reduced to its simplest form, you can think of R graphics like a painting. You start out with an empty canvas. Every time you use a graphics function, it paints some new things onto your canvas. Later you can paint more things over the top if you want, layering new information over the old. This way of thinking about plotting data is referred to as the painter’s model - the key thing to keep in mind is because the plot is constructed sequentially, the order in which you do things matters.

We can extend the painting metaphor a little. If you want to paint a picture, you need to paint it on something. In real life, you can paint on lots of different things. Painting onto canvas isn’t the same as painting onto paper, and neither is the same as painting on a wall. In R, the thing that you paint onto is called a graphics device. In RStudio, the default graphics device is RStudioGD and it corresponds to the “plot” pane. If you were using the basic R program for Windows (i.e., R.exe) the default device is windows, on the Mac application (R.app) it’s called quartz, etc. However, from the computer’s perspective there’s nothing terribly special about drawing pictures on screen, and so R is quite happy to paint pictures directly into a file. R can paint several different types of image files: jpeg, png, pdf, postscript, tiff and bmp files are all available as graphics devices and you can write plots directly to those using those1

Secondly, when you paint a picture you need to paint it with something. Maybe you want to do an oil painting, but maybe you want to use watercolour. And, generally speaking, you pretty much have to pick one or the other. The analog to this in R is a “graphics system”. A graphics system defines a collection of graphics commands about what to draw and where to draw it. Something that surprises most new R users is the discovery that R actually has several mutually incompatible graphics systems. The two of most interest to us are the base graphics system that comes with R and the ggplot2 system2 that forms part of tidyverse. There’s quite a difference of opinion among R users about the relative merits of these two systems. You can get started in base graphics really easily. To see just how easy it is, let’s load a new data set and try to draw a picture.

frames <- read_csv(here("analysis","data","frames_ex2.csv"))
frames

## # A tibble: 4,725 x 8
##       id gender   age condition sample_size n_obs test_item response
##    <int> <chr>  <int> <chr>     <chr>       <int>     <int>    <int>
##  1     1 male      36 category  small           2         1        8
##  2     1 male      36 category  small           2         2        7
##  3     1 male      36 category  small           2         3        6
##  4     1 male      36 category  small           2         4        6
##  5     1 male      36 category  small           2         5        5
##  6     1 male      36 category  small           2         6        6
##  7     1 male      36 category  small           2         7        3
##  8     1 male      36 category  medium          6         1        9
##  9     1 male      36 category  medium          6         2        7
## 10     1 male      36 category  medium          6         3        5
## # ... with 4,715 more rows

Using the tools from the last section, let’s also create a smaller summary data frame that contains one row per person:

frames_small <- frames %>%
  group_by(id, gender, age, condition) %>%
  summarise(response = mean(response))
frames_small

## # A tibble: 225 x 5
## # Groups:   id, gender, age [?]
##       id gender   age condition response
##    <int> <chr>  <int> <chr>        <dbl>
##  1     1 male      36 category      5.33
##  2     2 male      46 category      7.05
##  3     3 female    33 property      4.86
##  4     4 female    71 property      3.86
##  5     5 female    23 property      9   
##  6     6 female    31 category      7.90
##  7     7 male      23 property      3.76
##  8     8 female    31 property      4   
##  9     9 female    37 category      3.38
## 10    10 female    46 category      5.86
## # ... with 215 more rows
…
Error bars

As much as I love the bubble plot above, academic journals often expect a more compressed representation of the data, especially when the manuscript you’re submitting involves a large number of experiments. It’s often the case that we want to summarise the data from a single condition using a “mean plus error bar” style plot. A common format is to plot the mean for every experimental condition and have error bars plotting the 95% confidence interval for the mean. To do that for the frames data, let’s begin by constructing a summary data set

frames_mean <- frames %>%
  group_by(condition,sample_size,test_item) %>%
  summarise(
    mean_response = mean(response),
    lower = lsr::ciMean(response)[1],
    upper = lsr::ciMean(response)[2]
  )
frames_mean

## # A tibble: 42 x 6
## # Groups:   condition, sample_size [?]
##    condition sample_size test_item mean_response lower upper
##    <chr>     <fct>           <int>         <dbl> <dbl> <dbl>
##  1 category  small               1          6.07  5.55  6.59
##  2 category  small               2          6.26  5.84  6.69
##  3 category  small               3          5.87  5.50  6.24
##  4 category  small               4          5.11  4.74  5.49
##  5 category  small               5          4.55  4.12  4.99
##  6 category  small               6          4.16  3.69  4.63
##  7 category  small               7          3.98  3.44  4.52
##  8 category  medium              1          7.32  6.85  7.78
##  9 category  medium              2          7.17  6.80  7.54
## 10 category  medium              3          5.98  5.54  6.42
## # ... with 32 more rows
…
