Data Wrangling Exercise 5
…
11/12/2018

Yet another exercise in fixing broken code, but this time using the frames data!

library(tidyverse)
library(here)
library(skimr)
frames <- here("analysis", "data", "frames_ex2.csv") %>% read_csv()

Print and skim the data. Notice that there are a lot of rows, because every row is a single judgment!

frames

## # A tibble: 4,725 x 8
##       id gender   age condition sample_size n_obs test_item response
##    <int> <chr>  <int> <chr>     <chr>       <int>     <int>    <int>
##  1     1 male      36 category  small           2         1        8
##  2     1 male      36 category  small           2         2        7
##  3     1 male      36 category  small           2         3        6
##  4     1 male      36 category  small           2         4        6
##  5     1 male      36 category  small           2         5        5
##  6     1 male      36 category  small           2         6        6
##  7     1 male      36 category  small           2         7        3
##  8     1 male      36 category  medium          6         1        9
##  9     1 male      36 category  medium          6         2        7
## 10     1 male      36 category  medium          6         3        5
## # ... with 4,715 more rows
…
Use filter to extract the data from person with id of 12.

one_person <- frames %>% 
  filter(id == 12)

Inspect their raw data:

one_person

## # A tibble: 21 x 8
##       id gender   age condition sample_size n_obs test_item response
##    <int> <chr>  <int> <chr>     <chr>       <int>     <int>    <int>
##  1    12 female    30 property  small           2         1        9
##  2    12 female    30 property  small           2         2        9
##  3    12 female    30 property  small           2         3        8
##  4    12 female    30 property  small           2         4        9
##  5    12 female    30 property  small           2         5        9
##  6    12 female    30 property  small           2         6        9
##  7    12 female    30 property  small           2         7        9
##  8    12 female    30 property  medium          6         1        7
##  9    12 female    30 property  medium          6         2        6
## 10    12 female    30 property  medium          6         3        6
## # ... with 11 more rows
…
