Data Wrangling Exercise 1
…
## Error in library(BROKEN - BIT): 'package' must be of length 1

The second step in our data analysis is loading the data from a file. For this first exercise, we’ll use a simpler data set than the frames file, and instead load a tidy_users.csv data file that contains information about the number of people visiting Danielle’s website over a couple of months.

data_file <- here("analysis", "data", "tidy_users.csv")
tidy_users <- read_csv(BROKEN-BIT)

## Error in is.connection(x): object 'BROKEN' not found

Now that we’ve loaded the data, we should take a look at it. In the tutorial we discussed how to do this either by printing the variable, or glimpsing it. The code below prints it but doesn’t glimpse. Fix it so that it uses glimpse instead:

tidy_users

## # A tibble: 147 x 7
##    Date       Users DayNum   Day Month  Year Weekday  
##    <date>     <int>  <int> <int> <int> <int> <chr>    
##  1 2018-03-18     3      1    18     3  2018 Sunday   
##  2 2018-03-19     2      2    19     3  2018 Monday   
##  3 2018-03-20     8      3    20     3  2018 Tuesday  
##  4 2018-03-21     6      4    21     3  2018 Wednesday
##  5 2018-03-22    12      5    22     3  2018 Thursday 
##  6 2018-03-23     5      6    23     3  2018 Friday   
##  7 2018-03-24    10      7    24     3  2018 Saturday 
##  8 2018-03-25    24      8    25     3  2018 Sunday   
##  9 2018-03-26    27      9    26     3  2018 Monday   
## 10 2018-03-27    41     10    27     3  2018 Tuesday  
## # ... with 137 more rows
…
