Data Wrangling Exercise 6
…
  Statistics

Data Wrangling Exercise 6

Danielle J. Navarro

11/12/2018

library(tidyverse)
library(here)
tidy_nails <- here("analysis", "data", "tidy_nails.csv") %>% read_csv()
tidy_nails

## # A tibble: 102 x 6
##     year state                technicians salons region    population
##    <int> <chr>                      <int>  <int> <chr>          <int>
##  1  2017 Alabama                     4279     98 South        4874747
##  2  2017 Alaska                       860    885 West          739795
##  3  2017 Arizona                     8274    502 West         7016270
##  4  2017 Arkansas                    2137   1145 South        3004279
##  5  2017 California                100909   7897 West        39536653
##  6  2017 Colorado                    8733    925 West         5607154
##  7  2017 Connecticut                 2932    951 Northeast    3588184
##  8  2017 Delaware                     212    104 South         961939
##  9  2017 District of Columbia         958    186 South         693972
## 10  2017 Florida                    33999   4230 South       20984400
## # ... with 92 more rows
The data come from market research reported by Nails Magazine, tracking the number of nail salons and technicians working in said salons, across all U.S. states over several years.

Gather

Use the gather() function to create a long form data frame in which there are two variables, measure (which could be either “technicians” or “salns”) and count, which is indicates the numnber of technicians/salons, and then arrange it by U.S. state and year.

long_nails <- tidy_nails %>%
  gather( YOUR-CODE-HERE )  %>% 
  arrange( YOUR-CODE-HERE )

## Error in arrange_impl(.data, dots): Evaluation error: object 'YOUR' not found.

print(long_nails)

## # A tibble: 204 x 6
##     year state   region population measure     count
##    <int> <chr>   <chr>       <int> <chr>       <int>
##  1  2016 Alabama South     4860545 technicians  3389
##  2  2016 Alabama South     4860545 salons        951
##  3  2017 Alabama South     4874747 technicians  4279
##  4  2017 Alabama South     4874747 salons         98
##  5  2016 Alaska  West       741522 technicians   977
##  6  2016 Alaska  West       741522 salons        174
##  7  2017 Alaska  West       739795 technicians   860
##  8  2017 Alaska  West       739795 salons        885
##  9  2016 Arizona West      6908642 technicians  7874
## 10  2016 Arizona West      6908642 salons       1262
## # ... with 194 more rows
…
