Data wrangling with dplyr
…
]]] ]]

class: split-30 bg-main1

.column.bg-main1[.content.vmiddle.center[ ## Group & ## Summarise]]

.column.bg-main3[.content.vtop.center[ .pull.left[.pad1[.font2[

frames %>%
  group_by(test_item, sample_size, n_obs, condition) %>%
  summarise(response = mean(response))

## # A tibble: 42 x 5
## # Groups:   test_item, sample_size, n_obs [?]
##    test_item sample_size n_obs condition response
##        <int> <chr>       <int> <chr>        <dbl>
##  1         1 large          12 category      7.60
##  2         1 large          12 property      7.16
##  3         1 medium          6 category      7.32
##  4         1 medium          6 property      6.66
##  5         1 small           2 category      6.07
##  6         1 small           2 property      5.78
##  7         2 large          12 category      7.51
##  8         2 large          12 property      7.20
##  9         2 medium          6 category      7.17
## 10         2 medium          6 property      6.95
## # ... with 32 more rows

]]] ]]

class: split-30 bg-main1

.column.bg-main1[.content.vmiddle.center[ ## Group, ## Summarise, ## Ungroup ]]

.column.bg-main3[.content.vtop.center[ .pull.left[.pad1[.font2[

frames %>%
  group_by(test_item, sample_size, n_obs, condition) %>%
  summarise(response = mean(response)) %>%
  ungroup() #<<

## # A tibble: 42 x 5
##    test_item sample_size n_obs condition response
##        <int> <chr>       <int> <chr>        <dbl>
##  1         1 large          12 category      7.60
##  2         1 large          12 property      7.16
##  3         1 medium          6 category      7.32
##  4         1 medium          6 property      6.66
##  5         1 small           2 category      6.07
##  6         1 small           2 property      5.78
##  7         2 large          12 category      7.51
##  8         2 large          12 property      7.20
##  9         2 medium          6 category      7.17
## 10         2 medium          6 property      6.95
## # ... with 32 more rows
…
]]] ]]

class: split-20 bg-main1

.column.bg-main1[.content.vmiddle.center[ # Spread by # two cols?]]

.column.bg-main3[.content.vtop.center[ .pull.left[.pad1[.font2[

frames %>% 
  group_by(test_item, sample_size, condition) %>%
  summarise(response = mean(response))

## # A tibble: 42 x 4
## # Groups:   test_item, sample_size [?]
##    test_item sample_size condition response
##        <int> <chr>       <chr>        <dbl>
##  1         1 large       category      7.60
##  2         1 large       property      7.16
##  3         1 medium      category      7.32
##  4         1 medium      property      6.66
##  5         1 small       category      6.07
##  6         1 small       property      5.78
##  7         2 large       category      7.51
##  8         2 large       property      7.20
##  9         2 medium      category      7.17
## 10         2 medium      property      6.95
## # ... with 32 more rows

]]] ]]

class: split-20 bg-main1

.column.bg-main1[.content.vmiddle.center[ # Unite…]]

.column.bg-main3[.content.vtop.center[ .pull.left[.pad1[.font2[

frames %>% 
  group_by(test_item, sample_size, condition) %>%
  summarise(response = mean(response)) %>%
  unite(col = "cond_ss", condition, sample_size) #<<

## # A tibble: 42 x 3
## # Groups:   test_item [7]
##    test_item cond_ss         response
##        <int> <chr>              <dbl>
##  1         1 category_large      7.60
##  2         1 property_large      7.16
##  3         1 category_medium     7.32
##  4         1 property_medium     6.66
##  5         1 category_small      6.07
##  6         1 property_small      5.78
##  7         2 category_large      7.51
##  8         2 property_large      7.20
##  9         2 category_medium     7.17
## 10         2 property_medium     6.95
## # ... with 32 more rows
…
