…
## Parsed with column specification:
## cols(
##   id = col_integer(),
##   gender = col_character(),
##   age = col_integer(),
##   condition = col_character(),
##   sample_size = col_character(),
##   n_obs = col_integer(),
##   test_item = col_integer(),
##   response = col_integer()
## )

frames

## # A tibble: 4,725 x 8
##       id gender   age condition sample_size n_obs test_item response
##    <int> <chr>  <int> <chr>     <chr>       <int>     <int>    <int>
##  1     1 male      36 category  small           2         1        8
##  2     1 male      36 category  small           2         2        7
##  3     1 male      36 category  small           2         3        6
##  4     1 male      36 category  small           2         4        6
##  5     1 male      36 category  small           2         5        5
##  6     1 male      36 category  small           2         6        6
##  7     1 male      36 category  small           2         7        3
##  8     1 male      36 category  medium          6         1        9
##  9     1 male      36 category  medium          6         2        7
## 10     1 male      36 category  medium          6         3        5
## # ... with 4,715 more rows
…
which is a little nicer, but the a, b and c values are just dummy variables that we don’t actually want, so then you have to get rid of them. Piped code makes it much more readable, so from now on we’ll tend to work with pipes.

Group, summarise

Averaging across subjects.

average_response <- frames %>%
  group_by(test_item, sample_size, n_obs, condition) %>%
  summarise(response = mean(response))

Now let’s look

average_response

## # A tibble: 42 x 5
## # Groups:   test_item, sample_size, n_obs [?]
##    test_item sample_size n_obs condition response
##        <int> <chr>       <int> <chr>        <dbl>
##  1         1 large          12 category      7.60
##  2         1 large          12 property      7.16
##  3         1 medium          6 category      7.32
##  4         1 medium          6 property      6.66
##  5         1 small           2 category      6.07
##  6         1 small           2 property      5.78
##  7         2 large          12 category      7.51
##  8         2 large          12 property      7.20
##  9         2 medium          6 category      7.17
## 10         2 medium          6 property      6.95
## # ... with 32 more rows
…
What if we want to spread by two variables at once!!!

new_data <- frames %>% 
  group_by(test_item, sample_size, condition) %>%
  summarise(response = mean(response)) %>%
  unite(col = "cond_ss", condition, sample_size) 

… then you would spread() using cond_ss as the key.

Which brings us to a question. What if you get a data set where you have a variable like cond_ss that needs to be separated into two? Well…

new_data %>% separate(col = cond_ss, into = c("condition", "sample_size"))

## # A tibble: 42 x 4
## # Groups:   test_item [7]
##    test_item condition sample_size response
##        <int> <chr>     <chr>          <dbl>
##  1         1 category  large           7.60
##  2         1 property  large           7.16
##  3         1 category  medium          7.32
##  4         1 property  medium          6.66
##  5         1 category  small           6.07
##  6         1 property  small           5.78
##  7         2 category  large           7.51
##  8         2 property  large           7.20
##  9         2 category  medium          7.17
## 10         2 property  medium          6.95
## # ... with 32 more rows
…
