Data Wrangling Exercise 4
…
Data Wrangling Exercise 4

Danielle J. Navarro

11/12/2018

Another exercise in fixing broken code!

library(tidyverse)
library(here)
tidy_users <- here("analysis", "data", "tidy_users.csv") %>% read_csv()
tidy_users

## # A tibble: 147 x 7
##    Date       Users DayNum   Day Month  Year Weekday  
##    <date>     <int>  <int> <int> <int> <int> <chr>    
##  1 2018-03-18     3      1    18     3  2018 Sunday   
##  2 2018-03-19     2      2    19     3  2018 Monday   
##  3 2018-03-20     8      3    20     3  2018 Tuesday  
##  4 2018-03-21     6      4    21     3  2018 Wednesday
##  5 2018-03-22    12      5    22     3  2018 Thursday 
##  6 2018-03-23     5      6    23     3  2018 Friday   
##  7 2018-03-24    10      7    24     3  2018 Saturday 
##  8 2018-03-25    24      8    25     3  2018 Sunday   
##  9 2018-03-26    27      9    26     3  2018 Monday   
## 10 2018-03-27    41     10    27     3  2018 Tuesday  
## # ... with 137 more rows
…
